<DATE>	<TIME>	<OPEN>	<HIGH>	<LOW>	<CLOSE>	<TICKVOL>	<VOL>	<SPREAD>
2019.02.01	00:00:00	124.588	124.742	124.352	124.498	19470	0	22
2019.02.01	04:00:00	124.499	124.678	124.457	124.525	14749	0	22
2019.02.01	08:00:00	124.524	124.881	124.479	124.879	18254	0	22
2019.02.01	12:00:00	124.880	125.106	124.824	125.032	22395	0	22
2019.02.01	16:00:00	125.032	125.726	125.012	125.639	31139	0	22
2019.02.01	20:00:00	125.639	125.657	125.383	125.387	13725	0	22
2019.02.04	00:00:00	125.395	125.545	125.348	125.509	22039	0	22
2019.02.04	04:00:00	125.509	125.619	125.443	125.579	13039	0	22
2019.02.04	08:00:00	125.579	125.863	125.550	125.749	17956	0	22
2019.02.04	12:00:00	125.749	125.932	125.700	125.924	16972	0	22
2019.02.04	16:00:00	125.924	125.937	125.600	125.625	24914	0	22
2019.02.04	20:00:00	125.625	125.704	125.557	125.642	9980	0	22
2019.02.05	00:00:00	125.643	125.863	125.562	125.835	20325	0	22
2019.02.05	04:00:00	125.836	125.844	125.520	125.557	9867	0	22
2019.02.05	08:00:00	125.557	125.652	125.399	125.603	15074	0	22
2019.02.05	12:00:00	125.603	125.649	125.469	125.571	17931	0	22
2019.02.05	16:00:00	125.571	125.626	125.270	125.400	22936	0	22
2019.02.05	20:00:00	125.400	125.497	125.354	125.401	12519	0	22
2019.02.06	00:00:00	125.401	125.439	125.172	125.389	20594	0	22
2019.02.06	04:00:00	125.389	125.425	125.024	125.073	14595	0	22
2019.02.06	08:00:00	125.073	125.087	124.810	124.872	16961	0	22
2019.02.06	12:00:00	124.872	125.100	124.841	125.006	15323	0	22
2019.02.06	16:00:00	125.005	125.009	124.804	124.835	20865	0	22
2019.02.06	20:00:00	124.835	125.028	124.809	124.926	13405	0	22
2019.02.07	00:00:00	124.895	125.059	124.694	124.761	18886	0	22
2019.02.07	04:00:00	124.761	124.949	124.675	124.895	13673	0	22
2019.02.07	08:00:00	124.891	124.983	124.695	124.807	15793	0	22
2019.02.07	12:00:00	124.806	124.811	124.337	124.372	24677	0	22
2019.02.07	16:00:00	124.372	124.721	124.366	124.606	29480	0	22
2019.02.07	20:00:00	124.606	124.729	124.467	124.521	17463	0	22
2019.02.08	00:00:00	124.462	124.568	124.363	124.411	21660	0	22
2019.02.08	04:00:00	124.410	124.533	124.294	124.438	16231	0	22
2019.02.08	08:00:00	124.438	124.499	124.355	124.397	19659	0	22
2019.02.08	12:00:00	124.397	124.684	124.396	124.615	19086	0	22
2019.02.08	16:00:00	124.613	124.635	124.164	124.310	27417	0	22
2019.02.08	20:00:00	124.310	124.375	124.241	124.256	11819	0	22
2019.02.11	00:00:00	124.200	124.390	124.192	124.366	16804	0	22
2019.02.11	04:00:00	124.367	124.536	124.343	124.536	12864	0	22
2019.02.11	08:00:00	124.535	124.724	124.383	124.603	18134	0	22
2019.02.11	12:00:00	124.603	124.832	124.504	124.814	20107	0	22
2019.02.11	16:00:00	124.815	124.869	124.404	124.477	21829	0	22
2019.02.11	20:00:00	124.477	124.497	124.410	124.431	14521	0	22
2019.02.12	00:00:00	124.430	124.662	124.390	124.620	26170	0	22
2019.02.12	04:00:00	124.619	124.810	124.515	124.710	17125	0	22
2019.02.12	08:00:00	124.709	124.874	124.511	124.624	16268	0	22
2019.02.12	12:00:00	124.624	124.774	124.604	124.701	13152	0	22
2019.02.12	16:00:00	124.701	125.135	124.650	125.091	19360	0	22
2019.02.12	20:00:00	125.091	125.261	125.053	125.098	10428	0	22
2019.02.13	00:00:00	125.069	125.360	125.049	125.337	21151	0	22
2019.02.13	04:00:00	125.337	125.526	125.329	125.422	13920	0	22
2019.02.13	08:00:00	125.422	125.460	125.244	125.292	16159	0	22
2019.02.13	12:00:00	125.294	125.332	125.074	125.155	17077	0	22
2019.02.13	16:00:00	125.154	125.198	125.006	125.030	19781	0	22
2019.02.13	20:00:00	125.031	125.126	124.975	124.982	9909	0	22
2019.02.14	00:00:00	124.954	125.112	124.847	125.057	17639	0	22
2019.02.14	04:00:00	125.057	125.366	125.023	125.228	13277	0	22
2019.02.14	08:00:00	125.227	125.440	124.930	125.039	19059	0	22
2019.02.14	12:00:00	125.039	125.236	124.979	125.001	22071	0	22
2019.02.14	16:00:00	125.002	125.036	124.731	124.920	29663	0	22
2019.02.14	20:00:00	124.919	125.007	124.733	124.754	12233	0	22
2019.02.15	00:00:00	124.737	124.851	124.488	124.538	21346	0	22
2019.02.15	04:00:00	124.538	124.548	124.451	124.505	11361	0	22
2019.02.15	08:00:00	124.504	124.668	124.238	124.558	16444	0	22
2019.02.15	12:00:00	124.556	124.606	124.220	124.411	21063	0	22
2019.02.15	16:00:00	124.411	124.643	124.392	124.627	27777	0	22
2019.02.15	20:00:00	124.627	124.837	124.604	124.671	14760	0	22
2019.02.18	00:00:00	124.682	125.015	124.678	124.993	20232	0	22
2019.02.18	04:00:00	124.992	125.150	124.952	124.982	12940	0	22
2019.02.18	08:00:00	124.981	125.128	124.916	125.074	15545	0	22
2019.02.18	12:00:00	125.075	125.262	125.032	125.201	13429	0	22
2019.02.18	16:00:00	125.200	125.261	124.991	125.046	12042	0	22
2019.02.18	20:00:00	125.048	125.158	125.036	125.056	17626	0	22
2019.02.19	00:00:00	125.056	125.136	124.844	124.917	14697	0	22
2019.02.19	04:00:00	124.918	125.031	124.759	124.988	13092	0	22
2019.02.19	08:00:00	124.986	125.461	124.945	125.190	17150	0	22
2019.02.19	12:00:00	125.191	125.340	124.866	124.987	17774	0	22
2019.02.19	16:00:00	124.987	125.528	124.949	125.410	27849	0	22
2019.02.19	20:00:00	125.410	125.514	125.367	125.432	11431	0	22
2019.02.20	00:00:00	125.432	125.927	125.333	125.875	19805	0	22
2019.02.20	04:00:00	125.875	125.877	125.591	125.691	14881	0	22
2019.02.20	08:00:00	125.691	125.893	125.590	125.696	17634	0	22
2019.02.20	12:00:00	125.696	125.722	125.476	125.597	14986	0	22
2019.02.20	16:00:00	125.597	125.867	125.576	125.771	21152	0	22
2019.02.20	20:00:00	125.771	125.848	125.591	125.650	18016	0	22
2019.02.21	00:00:00	125.615	125.742	125.335	125.472	17860	0	22
2019.02.21	04:00:00	125.473	125.790	125.472	125.509	20342	0	22
2019.02.21	08:00:00	125.509	125.858	125.314	125.385	23542	0	22
2019.02.21	12:00:00	125.386	125.761	125.346	125.702	20066	0	22
2019.02.21	16:00:00	125.700	125.748	125.438	125.531	25195	0	22
2019.02.21	20:00:00	125.531	125.550	125.419	125.433	11475	0	22
2019.02.22	00:00:00	125.431	125.571	125.340	125.506	17662	0	22
2019.02.22	04:00:00	125.506	125.584	125.482	125.569	16658	0	22
2019.02.22	08:00:00	125.569	125.735	125.554	125.671	14638	0	22
2019.02.22	12:00:00	125.671	125.765	125.438	125.472	15459	0	22
2019.02.22	16:00:00	125.472	125.644	125.379	125.444	24346	0	22
2019.02.22	20:00:00	125.444	125.544	125.352	125.366	12994	0	22
2019.02.25	00:00:00	125.380	125.776	125.323	125.550	23850	0	22
2019.02.25	04:00:00	125.550	125.581	125.372	125.475	20594	0	22
2019.02.25	08:00:00	125.475	125.697	125.438	125.616	15514	0	22
2019.02.25	12:00:00	125.616	125.893	125.593	125.808	18637	0	22
2019.02.25	16:00:00	125.808	126.211	125.711	126.167	27783	0	22
2019.02.25	20:00:00	126.166	126.293	126.092	126.117	13750	0	22
2019.02.26	00:00:00	126.120	126.215	125.940	125.955	20040	0	22
2019.02.26	04:00:00	125.955	125.955	125.802	125.833	13607	0	22
2019.02.26	08:00:00	125.834	125.995	125.721	125.982	16446	0	22
2019.02.26	12:00:00	125.982	126.021	125.817	125.861	17767	0	22
2019.02.26	16:00:00	125.861	126.022	125.708	125.986	26149	0	22
2019.02.26	20:00:00	125.986	126.007	125.834	125.923	11909	0	22
2019.02.27	00:00:00	125.923	125.973	125.828	125.915	18475	0	22
2019.02.27	04:00:00	125.915	125.932	125.783	125.796	22208	0	22
2019.02.27	08:00:00	125.796	125.835	125.527	125.819	18802	0	22
2019.02.27	12:00:00	125.820	126.136	125.785	126.011	18037	0	22
2019.02.27	16:00:00	126.011	126.336	125.945	126.123	28164	0	22
2019.02.27	20:00:00	126.123	126.268	126.119	126.178	10495	0	22
2019.02.28	00:00:00	126.144	126.219	126.044	126.154	17155	0	22
2019.02.28	04:00:00	126.154	126.183	126.026	126.042	14508	0	22
2019.02.28	08:00:00	126.042	126.211	125.877	126.189	20066	0	22
2019.02.28	12:00:00	126.189	126.512	126.173	126.487	21992	0	22
2019.02.28	16:00:00	126.487	126.894	126.416	126.701	29813	0	22
2019.02.28	20:00:00	126.701	126.851	126.625	126.633	11257	0	22
2019.03.01	00:00:00	126.587	127.007	126.584	126.957	15273	0	22
2019.03.01	04:00:00	126.957	127.077	126.919	127.012	12900	0	22
2019.03.01	08:00:00	127.011	127.243	127.009	127.110	17512	0	22
2019.03.01	12:00:00	127.110	127.360	127.080	127.296	18071	0	22
2019.03.01	16:00:00	127.296	127.490	127.220	127.245	26181	0	22
2019.03.01	20:00:00	127.245	127.284	127.145	127.167	12142	0	22
2019.03.04	00:00:00	127.253	127.371	127.136	127.308	29055	0	22
2019.03.04	04:00:00	127.308	127.312	127.192	127.202	16130	0	22
2019.03.04	08:00:00	127.202	127.275	126.798	126.857	22111	0	22
2019.03.04	12:00:00	126.856	126.968	126.719	126.938	16821	0	22
2019.03.04	16:00:00	126.938	126.957	126.435	126.587	23912	0	22
2019.03.04	20:00:00	126.586	126.722	126.519	126.681	10232	0	22
2019.03.05	00:00:00	126.652	126.871	126.609	126.715	18200	0	22
2019.03.05	04:00:00	126.715	126.834	126.707	126.769	17281	0	22
2019.03.05	08:00:00	126.769	126.913	126.656	126.814	16396	0	22
2019.03.05	12:00:00	126.811	126.927	126.710	126.785	14855	0	22
2019.03.05	16:00:00	126.785	126.816	126.351	126.432	24874	0	22
2019.03.05	20:00:00	126.431	126.513	126.394	126.501	8785	0	22
2019.03.06	00:00:00	126.507	126.509	126.245	126.299	15154	0	22
2019.03.06	04:00:00	126.299	126.347	126.180	126.306	12976	0	22
2019.03.06	08:00:00	126.307	126.520	126.260	126.408	13991	0	22
2019.03.06	12:00:00	126.408	126.510	126.160	126.372	16057	0	22
2019.03.06	16:00:00	126.372	126.524	126.263	126.293	22464	0	22
2019.03.06	20:00:00	126.293	126.434	126.282	126.352	9976	0	22
2019.03.07	00:00:00	126.326	126.384	126.197	126.228	9909	0	22
2019.03.07	04:00:00	126.227	126.301	126.210	126.285	10209	0	22
2019.03.07	08:00:00	126.285	126.418	126.250	126.318	13179	0	22
2019.03.07	12:00:00	126.317	126.395	125.731	125.797	21703	0	22
2019.03.07	16:00:00	125.794	125.802	125.063	125.294	30665	0	22
2019.03.07	20:00:00	125.292	125.294	124.660	124.862	15085	0	22
2019.03.08	00:00:00	124.836	125.017	124.661	124.742	14004	0	22
2019.03.08	04:00:00	124.742	124.905	124.354	124.413	14533	0	22
2019.03.08	08:00:00	124.413	124.609	124.263	124.563	20211	0	22
2019.03.08	12:00:00	124.561	124.743	124.389	124.534	22240	0	22
2019.03.08	16:00:00	124.535	124.979	124.423	124.801	27524	0	22
2019.03.08	20:00:00	124.801	124.920	124.722	124.861	11930	0	22
2019.03.10	20:00:00	124.655	124.851	124.655	124.824	463	0	30
2019.03.11	00:00:00	124.824	124.888	124.471	124.733	18463	0	22
2019.03.11	04:00:00	124.733	124.841	124.688	124.809	14981	0	22
2019.03.11	08:00:00	124.809	125.193	124.805	125.138	15951	0	22
2019.03.11	12:00:00	125.138	125.147	124.838	124.941	21419	0	22
2019.03.11	16:00:00	124.942	125.069	124.795	125.025	17307	0	22
2019.03.11	20:00:00	125.025	125.135	124.976	125.091	12677	0	22
2019.03.12	00:00:00	125.091	125.474	125.066	125.440	17279	0	22
2019.03.12	04:00:00	125.440	125.466	125.240	125.276	10424	0	22
2019.03.12	08:00:00	125.276	125.755	125.222	125.547	15548	0	22
2019.03.12	12:00:00	125.546	125.564	125.059	125.379	24511	0	22
2019.03.12	16:00:00	125.379	125.815	125.247	125.652	19492	0	22
2019.03.12	20:00:00	125.652	125.786	125.599	125.672	12900	0	22
2019.03.13	00:00:00	125.672	125.720	125.475	125.485	13472	0	22
2019.03.13	04:00:00	125.485	125.681	125.445	125.632	11518	0	22
2019.03.13	08:00:00	125.632	125.815	125.545	125.707	11851	0	22
2019.03.13	12:00:00	125.708	125.942	125.691	125.889	16884	0	22
2019.03.13	16:00:00	125.889	125.945	125.674	125.717	16019	0	22
2019.03.13	20:00:00	125.715	126.072	125.630	126.069	18581	0	22
2019.03.14	00:00:00	126.069	126.273	125.925	126.245	15845	0	22
2019.03.14	04:00:00	126.244	126.407	126.200	126.283	15285	0	22
2019.03.14	08:00:00	126.284	126.555	126.219	126.392	15861	0	22
2019.03.14	12:00:00	126.393	126.396	126.036	126.054	23455	0	22
2019.03.14	16:00:00	126.053	126.356	126.003	126.246	20134	0	22
2019.03.14	20:00:00	126.246	126.347	126.116	126.208	11871	0	22
2019.03.15	00:00:00	126.208	126.559	126.202	126.498	13001	0	22
2019.03.15	04:00:00	126.498	126.542	126.237	126.351	15121	0	22
2019.03.15	08:00:00	126.351	126.532	126.332	126.398	15802	0	22
2019.03.15	12:00:00	126.398	126.502	126.112	126.294	15799	0	22
2019.03.15	16:00:00	126.294	126.494	126.160	126.204	18421	0	22
2019.03.15	20:00:00	126.204	126.311	126.160	126.220	5599	0	22
2019.03.17	20:00:00	126.183	126.231	126.170	126.195	225	0	41
2019.03.18	00:00:00	126.195	126.355	126.189	126.325	13075	0	22
2019.03.18	04:00:00	126.325	126.490	126.324	126.445	14364	0	22
2019.03.18	08:00:00	126.445	126.577	126.429	126.534	15955	0	22
2019.03.18	12:00:00	126.533	126.681	126.462	126.527	14249	0	22
2019.03.18	16:00:00	126.526	126.583	126.137	126.210	13557	0	22
2019.03.18	20:00:00	126.212	126.362	126.191	126.318	10181	0	22
2019.03.19	00:00:00	126.318	126.333	126.090	126.196	11809	0	22
2019.03.19	04:00:00	126.196	126.288	126.083	126.221	8589	0	22
2019.03.19	08:00:00	126.221	126.389	126.191	126.313	12547	0	22
2019.03.19	12:00:00	126.313	126.606	126.222	126.379	15397	0	22
2019.03.19	16:00:00	126.378	126.514	126.276	126.442	15671	0	22
2019.03.19	20:00:00	126.442	126.531	126.354	126.448	7212	0	22
2019.03.20	00:00:00	126.448	126.736	126.440	126.668	9484	0	22
2019.03.20	04:00:00	126.668	126.694	126.573	126.578	5462	0	22
2019.03.20	08:00:00	126.577	126.698	126.533	126.600	13974	0	22
2019.03.20	12:00:00	126.600	126.727	126.524	126.585	14831	0	22
2019.03.20	16:00:00	126.587	126.650	126.423	126.635	17214	0	21
2019.03.20	20:00:00	126.635	126.778	126.249	126.378	34269	0	21
2019.03.21	00:00:00	126.377	126.593	126.361	126.475	12117	0	21
2019.03.21	04:00:00	126.475	126.496	126.105	126.215	8544	0	21
2019.03.21	08:00:00	126.217	126.228	125.676	125.999	16584	0	21
2019.03.21	12:00:00	125.999	126.111	125.755	126.061	21152	0	21
2019.03.21	16:00:00	126.061	126.129	125.701	125.839	24985	0	21
2019.03.21	20:00:00	125.837	126.095	125.751	126.060	19110	0	21
2019.03.22	00:00:00	126.060	126.089	125.777	125.909	11621	0	21
2019.03.22	04:00:00	125.909	126.097	125.885	126.058	9537	0	21
2019.03.22	08:00:00	126.058	126.169	124.765	124.925	27639	0	21
2019.03.22	12:00:00	124.925	125.016	124.378	124.387	27538	0	21
2019.03.22	16:00:00	124.386	124.522	123.812	124.291	37466	0	21
2019.03.22	20:00:00	124.291	124.382	124.145	124.202	12458	0	21
2019.03.24	20:00:00	124.092	124.308	124.072	124.242	1149	0	21
2019.03.25	00:00:00	124.242	124.422	123.867	124.047	16137	0	21
2019.03.25	04:00:00	124.046	124.392	123.980	124.304	12231	0	21
2019.03.25	08:00:00	124.304	124.790	124.167	124.755	24712	0	21
2019.03.25	12:00:00	124.756	124.810	124.392	124.437	23800	0	21
2019.03.25	16:00:00	124.437	124.747	124.252	124.255	24956	0	21
2019.03.25	20:00:00	124.255	124.528	124.226	124.424	19140	0	21
2019.03.26	00:00:00	124.424	124.780	124.399	124.574	12160	0	21
2019.03.26	04:00:00	124.574	124.625	124.454	124.529	10586	0	21
2019.03.26	08:00:00	124.529	124.932	124.418	124.911	19737	0	21
2019.03.26	12:00:00	124.908	125.000	124.663	124.857	24492	0	21
2019.03.26	16:00:00	124.857	124.982	124.601	124.627	22597	0	21
2019.03.26	20:00:00	124.627	124.693	124.510	124.658	13317	0	21
2019.03.27	00:00:00	124.658	124.669	124.335	124.433	15425	0	21
2019.03.27	04:00:00	124.433	124.527	124.253	124.527	10582	0	21
2019.03.27	08:00:00	124.527	124.726	124.391	124.562	21674	0	21
2019.03.27	12:00:00	124.562	124.599	124.225	124.278	30228	0	21
2019.03.27	16:00:00	124.278	124.404	124.040	124.337	31029	0	21
2019.03.27	20:00:00	124.337	124.391	124.197	124.267	13101	0	21
2019.03.28	00:00:00	124.267	124.343	123.802	123.871	15922	0	21
2019.03.28	04:00:00	123.871	124.042	123.862	123.907	12564	0	21
2019.03.28	08:00:00	123.906	124.316	123.643	124.168	23710	0	21
2019.03.28	12:00:00	124.168	124.308	123.799	124.249	30449	0	21
2019.03.28	16:00:00	124.249	124.417	124.045	124.212	26653	0	21
2019.03.28	20:00:00	124.213	124.242	124.069	124.189	9507	0	21
2019.03.29	00:00:00	124.192	124.548	124.154	124.350	13266	0	21
2019.03.29	04:00:00	124.350	124.459	124.250	124.398	11856	0	21
2019.03.29	08:00:00	124.398	124.456	124.195	124.210	20557	0	21
2019.03.29	12:00:00	124.209	124.562	124.134	124.411	23693	0	21
2019.03.29	16:00:00	124.412	124.627	124.180	124.287	27293	0	21
2019.03.29	20:00:00	124.288	124.377	124.253	124.310	10683	0	21
2019.04.01	00:00:00	124.634	124.711	124.427	124.711	15964	0	21
2019.04.01	04:00:00	124.711	124.825	124.663	124.708	12708	0	21
2019.04.01	08:00:00	124.708	124.943	124.647	124.825	22570	0	21
2019.04.01	12:00:00	124.828	124.862	124.554	124.627	21524	0	21
2019.04.01	16:00:00	124.627	124.870	124.582	124.855	23328	0	21
2019.04.01	20:00:00	124.855	124.873	124.796	124.835	8506	0	21
2019.04.02	00:00:00	124.833	124.883	124.712	124.807	10699	0	21
2019.04.02	04:00:00	124.807	124.817	124.663	124.721	9957	0	21
2019.04.02	08:00:00	124.721	124.849	124.629	124.724	15543	0	21
2019.04.02	12:00:00	124.724	124.823	124.668	124.789	16888	0	21
2019.04.02	16:00:00	124.789	124.811	124.468	124.670	19010	0	21
2019.04.02	20:00:00	124.670	124.851	124.633	124.705	11233	0	21
2019.04.03	00:00:00	124.655	125.050	124.598	125.026	10111	0	21
2019.04.03	04:00:00	125.026	125.188	124.922	124.970	11906	0	21
2019.04.03	08:00:00	124.970	125.387	124.959	125.364	21184	0	21
2019.04.03	12:00:00	125.364	125.440	125.205	125.209	17080	0	21
2019.04.03	16:00:00	125.209	125.367	125.085	125.330	19694	0	21
2019.04.03	20:00:00	125.330	125.378	125.212	125.216	9703	0	21
2019.04.04	00:00:00	125.216	125.383	125.171	125.342	9459	0	21
2019.04.04	04:00:00	125.342	125.380	125.171	125.219	7736	0	21
2019.04.04	08:00:00	125.219	125.340	125.093	125.126	14880	0	21
2019.04.04	12:00:00	125.126	125.170	124.960	125.043	17831	0	21
2019.04.04	16:00:00	125.042	125.196	124.979	125.137	19391	0	21
2019.04.04	20:00:00	125.137	125.296	125.081	125.263	8038	0	21
2019.04.05	00:00:00	125.263	125.484	125.191	125.383	12321	0	21
2019.04.05	04:00:00	125.383	125.418	125.327	125.391	7094	0	21
2019.04.05	08:00:00	125.391	125.497	125.292	125.413	13102	0	21
2019.04.05	12:00:00	125.413	125.497	125.316	125.429	16403	0	21
2019.04.05	16:00:00	125.428	125.463	125.277	125.295	17435	0	21
2019.04.05	20:00:00	125.295	125.301	125.229	125.275	8337	0	21
2019.04.08	00:00:00	125.258	125.340	124.989	125.073	12989	0	21
2019.04.08	04:00:00	125.073	125.119	124.976	125.096	11176	0	21
2019.04.08	08:00:00	125.096	125.277	125.019	125.200	14451	0	21
2019.04.08	12:00:00	125.201	125.448	125.161	125.395	14750	0	21
2019.04.08	16:00:00	125.395	125.578	125.386	125.569	18051	0	21
2019.04.08	20:00:00	125.568	125.606	125.499	125.520	6216	0	21
2019.04.09	00:00:00	125.520	125.608	125.407	125.417	10061	0	21
2019.04.09	04:00:00	125.418	125.498	125.333	125.442	10623	0	21
2019.04.09	08:00:00	125.442	125.601	125.297	125.571	14971	0	21
2019.04.09	12:00:00	125.572	125.586	125.272	125.277	19608	0	21
2019.04.09	16:00:00	125.277	125.342	125.151	125.229	19390	0	21
2019.04.09	20:00:00	125.230	125.257	125.123	125.138	6819	0	21
2019.04.10	00:00:00	125.108	125.220	125.107	125.142	9526	0	21
2019.04.10	04:00:00	125.142	125.205	125.026	125.129	11090	0	21
2019.04.10	08:00:00	125.130	125.302	125.110	125.244	14336	0	21
2019.04.10	12:00:00	125.244	125.439	125.108	125.133	19390	0	21
2019.04.10	16:00:00	125.133	125.164	124.769	125.004	23724	0	21
2019.04.10	20:00:00	125.004	125.150	124.959	125.129	10801	0	21
2019.04.11	00:00:00	125.109	125.297	124.994	125.231	15964	0	21
2019.04.11	04:00:00	125.231	125.296	125.172	125.259	8979	0	21
2019.04.11	08:00:00	125.259	125.440	125.250	125.314	16885	0	21
2019.04.11	12:00:00	125.314	125.402	125.240	125.336	17230	0	21
2019.04.11	16:00:00	125.336	125.689	125.316	125.595	19263	0	21
2019.04.11	20:00:00	125.595	125.705	125.536	125.607	8078	0	21
2019.04.12	00:00:00	125.608	126.222	125.608	126.109	12835	0	21
2019.04.12	04:00:00	126.109	126.225	126.017	126.166	12096	0	21
2019.04.12	08:00:00	126.166	126.611	126.116	126.542	15348	0	21
2019.04.12	12:00:00	126.541	126.757	126.467	126.724	20415	0	21
2019.04.12	16:00:00	126.724	126.753	126.522	126.566	18847	0	21
2019.04.12	20:00:00	126.566	126.609	126.476	126.542	7200	0	21
2019.04.15	00:00:00	126.522	126.708	126.488	126.551	12729	0	21
2019.04.15	04:00:00	126.551	126.710	126.520	126.582	9548	0	21
2019.04.15	08:00:00	126.582	126.738	126.484	126.707	12877	0	21
2019.04.15	12:00:00	126.707	126.781	126.555	126.724	13775	0	21
2019.04.15	16:00:00	126.723	126.745	126.545	126.589	14496	0	21
2019.04.15	20:00:00	126.589	126.662	126.534	126.621	5594	0	21
2019.04.16	00:00:00	126.552	126.673	126.508	126.588	12050	0	21
2019.04.16	04:00:00	126.588	126.605	126.365	126.553	9395	0	21
2019.04.16	08:00:00	126.553	126.634	126.412	126.528	16599	0	21
2019.04.16	12:00:00	126.528	126.630	126.188	126.497	21679	0	21
2019.04.16	16:00:00	126.497	126.578	126.337	126.377	17711	0	21
2019.04.16	20:00:00	126.377	126.427	126.293	126.301	6761	0	21
2019.04.17	00:00:00	126.309	126.519	126.271	126.501	11622	0	21
2019.04.17	04:00:00	126.501	126.606	126.317	126.508	10356	0	21
2019.04.17	08:00:00	126.509	126.797	126.503	126.700	13322	0	21
2019.04.17	12:00:00	126.700	126.761	126.488	126.536	14494	0	21
2019.04.17	16:00:00	126.537	126.591	126.380	126.471	19227	0	21
2019.04.17	20:00:00	126.471	126.633	126.462	126.568	7613	0	21
2019.04.18	00:00:00	126.540	126.593	126.432	126.468	9031	0	21
2019.04.18	04:00:00	126.469	126.512	126.307	126.349	10716	0	21
2019.04.18	08:00:00	126.349	126.479	125.678	125.959	20518	0	21
2019.04.18	12:00:00	125.959	125.967	125.750	125.824	18408	0	21
2019.04.18	16:00:00	125.825	125.886	125.707	125.730	16477	0	21
2019.04.18	20:00:00	125.730	125.757	125.643	125.699	9086	0	21
2019.04.19	00:00:00	125.730	125.911	125.665	125.799	18718	0	21
2019.04.19	04:00:00	125.798	125.825	125.708	125.749	3480	0	21
2019.04.19	08:00:00	125.749	125.858	125.748	125.847	10499	0	21
2019.04.19	12:00:00	125.847	125.857	125.783	125.837	13800	0	21
2019.04.19	16:00:00	125.837	125.872	125.815	125.834	15458	0	21
2019.04.19	20:00:00	125.835	125.890	125.755	125.796	7426	0	23
